…
hh <- nhts_households %>% 
  # filter to MSA size 2, travel on weekday
  filter(msasize == "02", !travday %in% c("01", "07")) %>%
  # select the columns we care about.
  select(houseid, wthhfin, hhsize, hhvehcnt, numadlt, hhfaminc, wrkcount) %>%
  mutate(
    hhsize = ifelse(hhsize > 4, 4, hhsize),
    hhvehcnt = ifelse(hhvehcnt > 3, 3, hhvehcnt),
    wrkcount = ifelse(wrkcount > 2, 2, wrkcount)
  )
hh
```

```
## # A tibble: 10,381 x 7
##    houseid  wthhfin hhsize hhvehcnt numadlt hhfaminc                  wrkcount
##    <chr>      <dbl>  <dbl>    <dbl>   <dbl> <chr+lbl>                    <dbl>
##  1 30000019   279.       2        2       2 03 [$15,000 to $24,999]          0
##  2 30000288   103.       1        2       1 05 [$35,000 to $49,999]          0
##  3 30000289   244.       3        3       2 07 [$75,000 to $99,999]          1
##  4 30000463   348.       2        2       2 06 [$50,000 to $74,999]          2
##  5 30000465   133.       4        2       2 08 [$100,000 to $124,999]        2
##  6 30000478   120.       2        0       2 03 [$15,000 to $24,999]          0
##  7 30000545    35.7      2        3       2 06 [$50,000 to $74,999]          2
##  8 30000770   130.       1        1       1 06 [$50,000 to $74,999]          1
##  9 30000983   147.       4        3       4 09 [$125,000 to $149,999]        1
## 10 30001177   304.       2        0       2 04 [$25,000 to $34,999]          2
## # … with 10,371 more rows
```
…
```
## `summarise()` regrouping output by 'houseid' (override with `.groups` argument)
```

```r
trips
```

```
## # A tibble: 9,518 x 7
## # Groups:   houseid [9,518]
##    houseid    HBO HBSHOP   NHB HBSOCREC   HBW  `-9`
##    <chr>    <int>  <int> <int>    <int> <int> <int>
##  1 30000019     4      0     0        0     0     0
##  2 30000288     1      1     4        0     0     0
##  3 30000289     2      4     3        1     1     0
##  4 30000463     7      2     6        0     0     0
##  5 30000465     8      2     9        0     1     0
##  6 30000478     2      0     0        0     0     0
##  7 30000545     0      2     2        4     2     0
##  8 30000770     0      3     1        0     1     0
##  9 30000983     4      0     2        1     2     0
## 10 30001177     3      2     0        2     2     0
## # … with 9,508 more rows
```
…
```r
# function to change NA to 0
nato0 <- function(x) {ifelse(is.na(x), 0, x)}

tripprod <- hh %>% 
  # join tables by id field
  left_join(trips, by = "houseid") %>%
  # change all NA values in columns from the trips data to 0.a
  mutate_at(vars(names(trips)), nato0)
tripprod
```

```
## # A tibble: 10,381 x 13
##    houseid wthhfin hhsize hhvehcnt numadlt hhfaminc wrkcount   HBO HBSHOP   NHB
##    <chr>     <dbl>  <dbl>    <dbl>   <dbl> <chr+lb>    <dbl> <dbl>  <dbl> <dbl>
##  1 300000…   279.       2        2       2 03 [$15…        0     4      0     0
##  2 300002…   103.       1        2       1 05 [$35…        0     1      1     4
##  3 300002…   244.       3        3       2 07 [$75…        1     2      4     3
##  4 300004…   348.       2        2       2 06 [$50…        2     7      2     6
##  5 300004…   133.       4        2       2 08 [$10…        2     8      2     9
##  6 300004…   120.       2        0       2 03 [$15…        0     2      0     0
##  7 300005…    35.7      2        3       2 06 [$50…        2     0      2     2
##  8 300007…   130.       1        1       1 06 [$50…        1     0      3     1
##  9 300009…   147.       4        3       4 09 [$12…        1     4      0     2
## 10 300011…   304.       2        0       2 04 [$25…        2     3      2     0
## # … with 10,371 more rows, and 3 more variables: HBSOCREC <dbl>, HBW <dbl>,
## #   `-9` <dbl>
```
…
```r
psrc_attractions
```

```
## # A tibble: 643 x 12
##    attr_tract    HBO HBShop    HBW    NHB tothh  retl  manu  offi  gved  othr
##         <dbl>  <dbl>  <dbl>  <dbl>  <dbl> <dbl> <dbl> <dbl> <dbl> <dbl> <dbl>
##  1    5.30e10 8.92e3 1.02e3 6151.  4.70e2  3779   508   121   680    28   199
##  2    5.30e10 2.58e4 1.48e2    0   1.03e4  3654   146     0   605   264   117
##  3    5.30e10 3.90e1 1.30e1    0   8.50e2  1187    50     0   574     0     0
##  4    5.30e10 1.22e3 4.78e2   83.1 2.79e3  3760   385     0   773   211    99
##  5    5.30e10 5.08e3 3.53e2    0   5.30e3  2437    97    53   981    27   124
##  6    5.30e10 0.     0.        0   9.89e1  1251     0     0    96     2    93
##  7    5.30e10 9.79e3 4.22e3 1937.  3.22e4  3413   997     0  4017   527   101
##  8    5.30e10 5.66e3 3.24e1  178.  4.20e3  2222   315     0   967    19    89
##  9    5.30e10 1.65e3 1.08e0    0   2.22e3  1067     0     0    33    61    15
## 10    5.30e10 2.07e3 0.        0   4.25e0   868     0     0    80     0     5
## # … with 633 more rows, and 1 more variable: totemp <dbl>
```
…
```r
# read roanoke household trip productions
rvtpo_productions <- foreign::read.dbf("data/HH_PROD.DBF") %>%
  as_tibble()
# show first 10 rows
rvtpo_productions
```

```
## # A tibble: 267 x 7
##      TAZ  HBWP NHBWP  HBOP HBSCP HBSHP NHBOP
##    <dbl> <dbl> <dbl> <dbl> <dbl> <dbl> <dbl>
##  1     1 199.  113.  199.  112.  199.  384. 
##  2     2  38.6  22.0  38.6  21.8  38.6  74.5
##  3     3  88    50.2  88    49.7  88   170. 
##  4     4 265.  151.  265.  150.  265.  512. 
##  5     5 116.   65.9 116.   65.3 116.  223. 
##  6     6  69.0  39.4  69.0  39.0  69.0 133. 
##  7     7  26.7  15.2  26.7  15.1  26.7  51.7
##  8     8 174.   99.2 174.   98.2 174.  336. 
##  9     9  82.2  46.9  82.2  46.5  82.2 159. 
## 10    10 177.  101.  177.  100.  177.  343. 
## # … with 257 more rows
```
…
