B R and RStudio Help | Urban Transportation Planning
…
trips <- read_csv("data/demo_trips.csv")

## Parsed with column specification:
## cols(
##   houseid = col_double(),
##   personid = col_character(),
##   trpmiles = col_double(),
##   trippurp = col_character()
## )

print(trips)

## # A tibble: 924 x 4
##     houseid personid trpmiles trippurp
##       <dbl> <chr>       <dbl> <chr>   
##  1 30182694 01         13.6   HBW     
##  2 40532989 02          9.38  HBSOCREC
##  3 40729475 01          5.06  HBSHOP  
##  4 40290784 01          0.509 HBSOCREC
##  5 30118876 02          0.599 NHB     
##  6 30352119 01         20.3   HBO     
##  7 30085077 01         22.5   NHB     
##  8 30180962 02          0.581 HBSOCREC
##  9 40155356 01          2.74  HBO     
## 10 30069734 01          4.65  NHB     
## # … with 914 more rows

This function will make a guess as to what the columns types should be. Often
we want to keep ID values as characters, even if they are numeric (this preserves
leading 0 values, etc.). We can tell read_csv() what types we expect with
the col_types argument.

trips <- read_csv("data/demo_trips.csv", col_types = list(houseid = col_character()))
print(trips)

## # A tibble: 924 x 4
##    houseid  personid trpmiles trippurp
##    <chr>    <chr>       <dbl> <chr>   
##  1 30182694 01         13.6   HBW     
##  2 40532989 02          9.38  HBSOCREC
##  3 40729475 01          5.06  HBSHOP  
##  4 40290784 01          0.509 HBSOCREC
##  5 30118876 02          0.599 NHB     
##  6 30352119 01         20.3   HBO     
##  7 30085077 01         22.5   NHB     
##  8 30180962 02          0.581 HBSOCREC
##  9 40155356 01          2.74  HBO     
## 10 30069734 01          4.65  NHB     
## # … with 914 more rows

You can also write tables back to .csv with the write_csv() command.

B.4.2 Modifying and Summarizing Tables

In much of this section, we will work with the nhts_trips dataset of trips
from the 2017 National Household Travel Survey in the nhts2017 package you
installed from GitHub above.

library(nhts2017)
trips <- nhts_trips
trips

## # A tibble: 923,572 x 62
##    houseid personid tdtrpnum strttime            endtime             trvlcmin
##    <chr>   <chr>       <dbl> <dttm>              <dttm>              <dbl+lb>
##  1 300000… 01              1 2017-10-10 10:00:00 2017-10-10 10:15:00       15
##  2 300000… 01              2 2017-10-10 15:10:00 2017-10-10 15:30:00       20
##  3 300000… 02              1 2017-10-10 07:00:00 2017-10-10 09:00:00      120
##  4 300000… 02              2 2017-10-10 18:00:00 2017-10-10 20:30:00      150
##  5 300000… 03              1 2017-10-10 08:45:00 2017-10-10 09:00:00       15
##  6 300000… 03              2 2017-10-10 14:30:00 2017-10-10 14:45:00       15
##  7 300000… 01              1 2017-10-10 11:15:00 2017-10-10 11:30:00       15
##  8 300000… 01              2 2017-10-10 23:30:00 2017-10-10 23:40:00       10
##  9 300000… 01              1 2017-10-10 05:50:00 2017-10-10 06:05:00       15
## 10 300000… 01              2 2017-10-10 07:00:00 2017-10-10 07:15:00       15
## # … with 923,562 more rows, and 56 more variables: trpmiles <dbl+lbl>,
## #   trptrans <chr+lbl>, trpaccmp <dbl+lbl>, trphhacc <dbl+lbl>,
## #   vehid <chr+lbl>, trwaittm <dbl+lbl>, numtrans <dbl+lbl>, tracctm <dbl+lbl>,
## #   drop_prk <chr+lbl>, tregrtm <dbl+lbl>, whodrove <chr+lbl>,
## #   whyfrom <chr+lbl>, loop_trip <chr+lbl>, trphhveh <chr+lbl>,
## #   hhmemdrv <chr+lbl>, hh_ontd <dbl+lbl>, nonhhcnt <dbl+lbl>,
## #   numontrp <dbl+lbl>, psgr_flg <chr+lbl>, pubtrans <chr+lbl>,
## #   trippurp <chr+lbl>, dweltime <dbl+lbl>, tdwknd <chr+lbl>,
## #   vmt_mile <dbl+lbl>, drvr_flg <chr+lbl>, whytrp1s <chr+lbl>,
…
B.4.2.1 Select, Filter, and Chains

This table is pretty overwhelming. But there are two functions that can help
us pare it down:

select() lets you select columns in a table using the names of the columns.

filter() lets you select rows in a table that meet a certain condition.

Let’s practice this by selecting our trips dataset to only include the id
columns, the trip length, and the trip purpose.

select(trips, houseid, personid, trpmiles, trippurp)

## # A tibble: 923,572 x 4
##    houseid  personid  trpmiles trippurp                                        
##    <chr>    <chr>    <dbl+lbl> <chr+lbl>                                       
##  1 30000007 01            5.24 HBO [Home-based trip (other)]                   
##  2 30000007 01            5.15 HBO [Home-based trip (other)]                   
##  3 30000007 02           84.0  HBW [Home-based trip (work)]                    
##  4 30000007 02           81.6  HBW [Home-based trip (work)]                    
##  5 30000007 03            2.25 HBO [Home-based trip (other)]                   
##  6 30000007 03            2.24 HBO [Home-based trip (other)]                   
##  7 30000008 01            8.02 HBW [Home-based trip (work)]                    
##  8 30000008 01            8.02 HBW [Home-based trip (work)]                    
##  9 30000012 01            3.40 HBSOCREC [Home-based trip (social/recreational)]
## 10 30000012 01            3.40 HBSOCREC [Home-based trip (social/recreational)]
## # … with 923,562 more rows

Let’s also practice filtering the trips dataset to only include trips
of the purpose “HBO” (home-based other). Notice how the number of rows
in the table trips is much smaller.

filter(trips, trippurp == "HBW") # use double equals as comparison

## # A tibble: 117,368 x 62
##    houseid personid tdtrpnum strttime            endtime             trvlcmin
##    <chr>   <chr>       <dbl> <dttm>              <dttm>              <dbl+lb>
##  1 300000… 02              1 2017-10-10 07:00:00 2017-10-10 09:00:00      120
##  2 300000… 02              2 2017-10-10 18:00:00 2017-10-10 20:30:00      150
##  3 300000… 01              1 2017-10-10 11:15:00 2017-10-10 11:30:00       15
##  4 300000… 01              2 2017-10-10 23:30:00 2017-10-10 23:40:00       10
##  5 300000… 01              5 2017-10-10 09:00:00 2017-10-10 09:20:00       20
##  6 300000… 01              7 2017-10-10 15:30:00 2017-10-10 16:05:00       35
##  7 300000… 01              1 2017-10-10 08:00:00 2017-10-10 08:20:00       20
##  8 300000… 01              2 2017-10-10 18:00:00 2017-10-10 20:00:00      120
##  9 300000… 02              3 2017-10-10 09:00:00 2017-10-10 11:00:00      120
## 10 300000… 02              4 2017-10-10 18:30:00 2017-10-10 20:30:00      120
## # … with 117,358 more rows, and 56 more variables: trpmiles <dbl+lbl>,
## #   trptrans <chr+lbl>, trpaccmp <dbl+lbl>, trphhacc <dbl+lbl>,
## #   vehid <chr+lbl>, trwaittm <dbl+lbl>, numtrans <dbl+lbl>, tracctm <dbl+lbl>,
## #   drop_prk <chr+lbl>, tregrtm <dbl+lbl>, whodrove <chr+lbl>,
## #   whyfrom <chr+lbl>, loop_trip <chr+lbl>, trphhveh <chr+lbl>,
## #   hhmemdrv <chr+lbl>, hh_ontd <dbl+lbl>, nonhhcnt <dbl+lbl>,
## #   numontrp <dbl+lbl>, psgr_flg <chr+lbl>, pubtrans <chr+lbl>,
## #   trippurp <chr+lbl>, dweltime <dbl+lbl>, tdwknd <chr+lbl>,
## #   vmt_mile <dbl+lbl>, drvr_flg <chr+lbl>, whytrp1s <chr+lbl>,
…
One extremely useful feature of the tidyverse functions is the chain
operator, %>%. This operator basically does the opposite of the assigment
operator <-. While assignment says “take the thing on the right and put it in
the thing on the left,” chain says “take the thing on the left and pass it as
the first argument of the function on the right.” What this means in practice is
we can chain R commands together. So we can do the select and the filter
statements in sequence,

trips %>%
  select(houseid, personid, trpmiles, trippurp) %>%
  filter(trippurp == "HBW")

## # A tibble: 117,368 x 4
##    houseid  personid  trpmiles trippurp                    
##    <chr>    <chr>    <dbl+lbl> <chr+lbl>                   
##  1 30000007 02           84.0  HBW [Home-based trip (work)]
##  2 30000007 02           81.6  HBW [Home-based trip (work)]
##  3 30000008 01            8.02 HBW [Home-based trip (work)]
##  4 30000008 01            8.02 HBW [Home-based trip (work)]
##  5 30000012 01            4.29 HBW [Home-based trip (work)]
##  6 30000012 01            6.82 HBW [Home-based trip (work)]
##  7 30000039 01           11.5  HBW [Home-based trip (work)]
##  8 30000041 01           73.7  HBW [Home-based trip (work)]
##  9 30000041 02           77.9  HBW [Home-based trip (work)]
## 10 30000041 02           77.8  HBW [Home-based trip (work)]
## # … with 117,358 more rows
…
B.4.3 Mutate, Summarize, and Group

Sometimes we want to calculate a new column in a table, or recompute an
existing column. We can do that with the mutate function, and we can
put more than one calculation in a single mutate statement.

mytrips %>%
  mutate(
    tripkm = trpmiles * 1.60934, # convert miles to km.
    longtrip = ifelse(tripkm > 50, TRUE, FALSE) # is trip longer than 50 km?
  )

## # A tibble: 307,390 x 6
##    houseid  personid  trpmiles trippurp                         tripkm longtrip
##    <chr>    <chr>    <dbl+lbl> <chr+lbl>                     <dbl+lbl> <lgl>   
##  1 30000007 01            5.24 HBO [Home-based trip (other)]      8.44 FALSE   
##  2 30000007 01            5.15 HBO [Home-based trip (other)]      8.29 FALSE   
##  3 30000007 02           84.0  HBW [Home-based trip (work)]     135.   TRUE    
##  4 30000007 02           81.6  HBW [Home-based trip (work)]     131.   TRUE    
##  5 30000007 03            2.25 HBO [Home-based trip (other)]      3.62 FALSE   
##  6 30000007 03            2.24 HBO [Home-based trip (other)]      3.61 FALSE   
##  7 30000008 01            8.02 HBW [Home-based trip (work)]      12.9  FALSE   
##  8 30000008 01            8.02 HBW [Home-based trip (work)]      12.9  FALSE   
##  9 30000012 01            4.29 HBW [Home-based trip (work)]       6.91 FALSE   
## 10 30000012 01            6.82 HBW [Home-based trip (work)]      11.0  FALSE   
## # … with 307,380 more rows
…
