Chapter 2 Trip Generation | Urban Transportation Planning
…
library(tidyverse)
library(nhts2017)

hh <- nhts_households %>% 
  # filter to MSA size 2, travel on weekday
  filter(msasize == "02", !travday %in% c("01", "07")) %>%
  # select the columns we care about.
  select(houseid, wthhfin, hhsize, hhvehcnt, numadlt, hhfaminc, wrkcount) %>%
  mutate(
    hhsize = ifelse(hhsize > 4, 4, hhsize),
    hhvehcnt = ifelse(hhvehcnt > 3, 3, hhvehcnt)
  )
hh

## # A tibble: 10,381 x 7
##    houseid  wthhfin hhsize hhvehcnt numadlt hhfaminc                  wrkcount
##    <chr>      <dbl>  <dbl>    <dbl>   <dbl> <chr+lbl>                    <dbl>
##  1 30000019   279.       2        2       2 03 [$15,000 to $24,999]          0
##  2 30000288   103.       1        2       1 05 [$35,000 to $49,999]          0
##  3 30000289   244.       3        3       2 07 [$75,000 to $99,999]          1
##  4 30000463   348.       2        2       2 06 [$50,000 to $74,999]          2
##  5 30000465   133.       4        2       2 08 [$100,000 to $124,999]        2
##  6 30000478   120.       2        0       2 03 [$15,000 to $24,999]          0
##  7 30000545    35.7      2        3       2 06 [$50,000 to $74,999]          2
##  8 30000770   130.       1        1       1 06 [$50,000 to $74,999]          1
##  9 30000983   147.       4        3       4 09 [$125,000 to $149,999]        1
## 10 30001177   304.       2        0       2 04 [$25,000 to $34,999]          2
## # … with 10,371 more rows
…
## `summarise()` regrouping output by 'houseid' (override with `.groups` argument)

trips

## Warning: `...` is not empty.
## 
## We detected these problematic arguments:
## * `needs_dots`
## 
## These dots only exist to allow future extensions and should be empty.
## Did you misspecify an argument?

## # A tibble: 9,518 x 7
## # Groups:   houseid [9,518]
##    houseid    HBO HBSHOP   NHB HBSOCREC   HBW  `-9`
##    <chr>    <int>  <int> <int>    <int> <int> <int>
##  1 30000019     4      0     0        0     0     0
##  2 30000288     1      1     4        0     0     0
##  3 30000289     2      4     3        1     1     0
##  4 30000463     7      2     6        0     0     0
##  5 30000465     8      2     9        0     1     0
##  6 30000478     2      0     0        0     0     0
##  7 30000545     0      2     2        4     2     0
##  8 30000770     0      3     1        0     1     0
##  9 30000983     4      0     2        1     2     0
## 10 30001177     3      2     0        2     2     0
## # … with 9,508 more rows
…
## Warning: `...` is not empty.
## 
## We detected these problematic arguments:
## * `needs_dots`
## 
## These dots only exist to allow future extensions and should be empty.
## Did you misspecify an argument?

## # A tibble: 10,381 x 13
##    houseid wthhfin hhsize hhvehcnt numadlt hhfaminc wrkcount   HBO HBSHOP   NHB
##    <chr>     <dbl>  <dbl>    <dbl>   <dbl> <chr+lb>    <dbl> <dbl>  <dbl> <dbl>
##  1 300000…   279.       2        2       2 03 [$15…        0     4      0     0
##  2 300002…   103.       1        2       1 05 [$35…        0     1      1     4
##  3 300002…   244.       3        3       2 07 [$75…        1     2      4     3
##  4 300004…   348.       2        2       2 06 [$50…        2     7      2     6
##  5 300004…   133.       4        2       2 08 [$10…        2     8      2     9
##  6 300004…   120.       2        0       2 03 [$15…        0     2      0     0
##  7 300005…    35.7      2        3       2 06 [$50…        2     0      2     2
##  8 300007…   130.       1        1       1 06 [$50…        1     0      3     1
##  9 300009…   147.       4        3       4 09 [$12…        1     4      0     2
## 10 300011…   304.       2        0       2 04 [$25…        2     3      2     0
## # … with 10,371 more rows, and 3 more variables: HBSOCREC <dbl>, HBW <dbl>,
## #   `-9` <dbl>
…
